…
```
## [1] 73378
```

```r
# http://indicators.report/indicators/i-67/
st_20min <- filter(x_FR, x_mean <= 20) 
st_20min
```

```
## # A tibble: 578 x 3
##    stop_id     n x_mean
##      <chr> <int>  <dbl>
## 1        1   119    8.1
## 2     1007    78   12.3
## 3      102    82   11.5
## 4     1022   193    5.2
## 5     1023   193    5.2
## 6     1024    96   10.6
## 7     1025   193    5.2
## 8     1026   236    4.4
## 9     1027    96   10.6
## 10    1028   193    5.2
## # ... with 568 more rows
```
…
